fir.vcd
$date
   Mon Oct 23 09:08:14 2023
$end
$version
  2022.1
$end
$timescale
  1ps
$end
$scope module fir_tb $end
$var wire 1 ! awready $end
$var wire 1 " wready $end
$var reg 1 # awvalid $end
$var reg 12 $ awaddr [11:0] $end
$var reg 1 % wvalid $end
$var reg 32 & wdata [31:0] $end
$var wire 1 ' arready $end
$var reg 1 ( rready $end
$var reg 1 ) arvalid $end
$var reg 12 * araddr [11:0] $end
$var wire 1 + rvalid $end
$var wire 32 , rdata [31:0] $end
$var reg 1 - ss_tvalid $end
$var reg 32 . ss_tdata [31:0] $end
$var reg 1 / ss_tlast $end
$var wire 1 0 ss_tready $end
$var reg 1 1 sm_tready $end
$var wire 1 2 sm_tvalid $end
$var wire 32 3 sm_tdata [31:0] $end
$var wire 1 4 sm_tlast $end
$var reg 1 5 axis_clk $end
$var reg 1 6 axis_rst_n $end
$var reg 11 7 counter [10:0] $end
$var wire 4 8 tap_WE [3:0] $end
$var wire 1 9 tap_EN $end
$var wire 32 : tap_Di [31:0] $end
$var wire 12 ; tap_A [11:0] $end
$var wire 32 < tap_Do [31:0] $end
$var wire 4 = data_WE [3:0] $end
$var wire 1 > data_EN $end
$var wire 32 ? data_Di [31:0] $end
$var wire 12 @ data_A [11:0] $end
$var wire 32 A data_Do [31:0] $end
$var reg 32 B data_length [31:0] $end
$var integer 32 C Din [31:0] $end
$var integer 32 D golden [31:0] $end
$var integer 32 E input_data [31:0] $end
$var integer 32 F golden_data [31:0] $end
$var integer 32 G m [31:0] $end
$var integer 32 H i [31:0] $end
$var integer 32 I k [31:0] $end
$var reg 1 J error $end
$var reg 1 K error_coef $end
$var integer 32 L timeout [31:0] $end
$scope module fir_DUT $end
$var wire 1 ! awready $end
$var wire 1 " wready $end
$var wire 1 M awvalid $end
$var wire 12 N awaddr [11:0] $end
$var wire 1 O wvalid $end
$var wire 32 P wdata [31:0] $end
$var wire 1 ' arready $end
$var wire 1 Q rready $end
$var wire 1 R arvalid $end
$var wire 12 S araddr [11:0] $end
$var wire 1 + rvalid $end
$var wire 32 , rdata [31:0] $end
$var wire 1 T ss_tvalid $end
$var wire 32 U ss_tdata [31:0] $end
$var wire 1 V ss_tlast $end
$var wire 1 0 ss_tready $end
$var wire 1 W sm_tready $end
$var wire 1 2 sm_tvalid $end
$var wire 32 3 sm_tdata [31:0] $end
$var wire 1 4 sm_tlast $end
$var wire 4 8 tap_WE [3:0] $end
$var wire 1 9 tap_EN $end
$var wire 32 : tap_Di [31:0] $end
$var wire 12 ; tap_A [11:0] $end
$var wire 32 < tap_Do [31:0] $end
$var wire 4 = data_WE [3:0] $end
$var wire 1 > data_EN $end
$var wire 32 ? data_Di [31:0] $end
$var wire 12 @ data_A [11:0] $end
$var wire 32 A data_Do [31:0] $end
$var wire 1 X axis_clk $end
$var wire 1 Y axis_rst_n $end
$var reg 4 Z tapwe [3:0] $end
$var reg 1 [ ssready $end
$var reg 4 \ state [3:0] $end
$var reg 4 ] next [3:0] $end
$var reg 4 ^ count [3:0] $end
$var reg 4 _ count1 [3:0] $end
$var reg 4 ` count2 [3:0] $end
$var reg 1 a flag $end
$var reg 32 b smtdata [31:0] $end
$var integer 32 c i [31:0] $end
$upscope $end
$scope module tap_RAM $end
$var wire 1 d CLK $end
$var wire 4 8 WE [3:0] $end
$var wire 1 9 EN $end
$var wire 32 : Di [31:0] $end
$var wire 32 < Do [31:0] $end
$var wire 12 ; A [11:0] $end
$var reg 12 e r_A [11:0] $end
$upscope $end
$scope module data_RAM $end
$var wire 1 f CLK $end
$var wire 4 = WE [3:0] $end
$var wire 1 > EN $end
$var wire 32 ? Di [31:0] $end
$var wire 32 A Do [31:0] $end
$var wire 12 @ A [11:0] $end
$var reg 12 g r_A [11:0] $end
$upscope $end
$scope task config_write $end
$var reg 12 h addr [11:0] $end
$var reg 32 i data [31:0] $end
$upscope $end
$scope task config_read_check $end
$var reg 12 j addr [11:0] $end
$var reg 32 k exp_data [31:0] $end
$var reg 32 l mask [31:0] $end
$upscope $end
$scope task ss $end
$var reg 32 m in1 [31:0] $end
$upscope $end
$scope task sm $end
$var reg 32 n in2 [31:0] $end
$var reg 32 o pcnt [31:0] $end
$upscope $end
$upscope $end
$enddefinitions $end
#0
$dumpvars
0!
0"
0#
bx $
0%
bx &
0'
x(
x)
bx *
0+
b0 ,
1-
b1 .
0/
00
11
x2
bx 3
x4
05
06
bx 7
bx 8
09
bx :
bx ;
b0 <
bx =
1>
b0x ?
bx @
bx A
b1001011000 B
b11111111111111111011000111100000 C
b11111111111111111011000111100001 D
b1 E
b1 F
b1001011000 G
b0 H
bx I
0J
0K
b11110100001001000000 L
0M
bx N
0O
bx P
xQ
xR
bx S
1T
b1 U
0V
1W
0X
0Y
bx Z
x[
bx \
b0 ]
bx ^
bx _
bx `
xa
bx b
bx c
0d
bx e
0f
bx g
b10000 h
b1001011000 i
bx j
bx k
bx l
b1 m
bx n
bx o
$end
#5000
0!
0"
1#
b10000 $
1%
b1001011000 &
02
04
15
b0 7
bx ;
b0 =
b0 ?
b11110100001000111111 L
1M
b10000 N
1O
b1001011000 P
1X
b0 \
b0 ]
1d
bx e
1f
bx g
#10000
05
0X
0d
0f
#15000
1!
1"
x'
x+
bx ,
00
b0 3
04
15
16
b1 7
b0 8
x9
b0 :
b0 ;
bx <
bx =
b0x ?
b0 @
b11110100001000111110 L
1X
1Y
b0 Z
0[
b0 \
b11 ]
b0 ^
b0 _
b0 `
0a
b0 b
b1011 c
1d
bx e
1f
bx g
#20000
05
0X
0d
0f
#25000
0!
0"
0#
0%
02
15
b10 7
b0 ;
bx <
bx =
bx A
b0 I
b11110100001000111101 L
0M
0O
1X
b0 Z
0[
b11 \
b11 ]
b0 ^
b0 _
b0 `
0a
b0 b
b1011 c
1d
b0 e
1f
b0 g
b100000 h
b0 i
#30000
05
0X
0d
0f
#35000
1!
1"
1#
b100000 $
1%
b0 &
15
b11 7
b11110100001000111100 L
1M
b100000 N
1O
b0 P
1X
b0 Z
0[
b11 \
b1 ]
1d
b0 e
1f
b0 g
#40000
05
0X
0d
0f
#45000
0!
0"
0#
0%
02
15
b100 7
b0 ;
bx =
b1 I
b11110100001000111011 L
0M
0O
1X
b0 Z
0[
b1 \
b11 ]
1d
b0 e
1f
b0 g
b100100 h
b11111111111111111111111111110110 i
#50000
05
0X
0d
0f
#55000
1!
1"
1#
b100100 $
1%
b11111111111111111111111111110110 &
02
15
b101 7
b0 ;
bx =
b11110100001000111010 L
1M
b100100 N
1O
b11111111111111111111111111110110 P
1X
b0 Z
0[
b11 \
b1 ]
b1 ^
b0 _
b0 `
0a
1d
b0 e
1f
b0 g
#60000
05
0X
0d
0f
#65000
0!
0"
0#
0%
02
15
b110 7
b0 ;
bx =
b10 I
b11110100001000111001 L
0M
0O
1X
b0 Z
0[
b1 \
b11 ]
1d
b0 e
1f
b0 g
b101000 h
b11111111111111111111111111110111 i
#70000
05
0X
0d
0f
#75000
1!
1"
1#
b101000 $
1%
b11111111111111111111111111110111 &
bx ,
02
15
b111 7
b0 :
b0 ;
bx =
b11110100001000111000 L
1M
b101000 N
1O
b11111111111111111111111111110111 P
1X
b0 Z
0[
b11 \
b1 ]
b10 ^
b0 _
b0 `
0a
1d
b0 e
1f
b0 g
#80000
05
0X
0d
0f
#85000
0!
0"
0#
0%
02
15
b1000 7
b0 ;
bx =
b11 I
b11110100001000110111 L
0M
0O
1X
b0 Z
0[
b1 \
b11 ]
1d
b0 e
1f
b0 g
b101100 h
b10111 i
#90000
05
0X
0d
0f
#95000
1!
1"
1#
b101100 $
1%
b10111 &
bx ,
02
15
b1001 7
b0 :
b0 ;
bx =
b11110100001000110110 L
1M
b101100 N
1O
b10111 P
1X
b0 Z
0[
b11 \
b1 ]
b11 ^
b0 _
b0 `
0a
1d
b0 e
1f
b0 g
#100000
05
0X
0d
0f
#105000
0!
0"
0#
0%
02
15
b1010 7
b0 ;
bx =
b100 I
b11110100001000110101 L
0M
0O
1X
b0 Z
0[
b1 \
b11 ]
1d
b0 e
1f
b0 g
b110000 h
b111000 i
#110000
05
0X
0d
0f
#115000
1!
1"
1#
b110000 $
1%
b111000 &
bx ,
02
15
b1011 7
b0 :
b0 ;
bx =
b11110100001000110100 L
1M
b110000 N
1O
b111000 P
1X
b0 Z
0[
b11 \
b1 ]
b100 ^
b0 _
b0 `
0a
1d
b0 e
1f
b0 g
#120000
05
0X
0d
0f
#125000
0!
0"
0#
0%
02
15
b1100 7
b0 ;
bx =
b101 I
b11110100001000110011 L
0M
0O
1X
b0 Z
0[
b1 \
b11 ]
1d
b0 e
1f
b0 g
b110100 h
b111111 i
#130000
05
0X
0d
0f
#135000
1!
1"
1#
b110100 $
1%
b111111 &
bx ,
02
15
b1101 7
b0 :
b0 ;
bx =
b11110100001000110010 L
1M
b110100 N
1O
b111111 P
1X
b0 Z
0[
b11 \
b1 ]
b101 ^
b0 _
b0 `
0a
1d
b0 e
1f
b0 g
#140000
05
0X
0d
0f
#145000
0!
0"
0#
0%
02
15
b1110 7
b0 ;
bx =
b110 I
b11110100001000110001 L
0M
0O
1X
b0 Z
0[
b1 \
b11 ]
1d
b0 e
1f
b0 g
b111000 h
b111000 i
#150000
05
0X
0d
0f
#155000
1!
1"
1#
b111000 $
1%
b111000 &
bx ,
02
15
b1111 7
b0 :
b0 ;
bx =
b11110100001000110000 L
1M
b111000 N
1O
b111000 P
1X
b0 Z
0[
b11 \
b1 ]
b110 ^
b0 _
b0 `
0a
1d
b0 e
1f
b0 g
#160000
05
0X
0d
0f
#165000
0!
0"
0#
0%
02
15
b10000 7
b0 ;
bx =
b111 I
b11110100001000101111 L
0M
0O
1X
b0 Z
0[
b1 \
b11 ]
1d
b0 e
1f
b0 g
b111100 h
b10111 i
#170000
05
0X
0d
0f
#175000
1!
1"
1#
b111100 $
1%
b10111 &
bx ,
02
15
b10001 7
b0 :
b0 ;
bx =
b11110100001000101110 L
1M
b111100 N
1O
b10111 P
1X
b0 Z
0[
b11 \
b1 ]
b111 ^
b0 _
b0 `
0a
1d
b0 e
1f
b0 g
#180000
05
0X
0d
0f
#185000
0!
0"
0#
0%
02
15
b10010 7
b0 ;
bx =
b1000 I
b11110100001000101101 L
0M
0O
1X
b0 Z
0[
b1 \
b11 ]
1d
b0 e
1f
b0 g
b1000000 h
b11111111111111111111111111110111 i
#190000
05
0X
0d
0f
#195000
1!
1"
1#
b1000000 $
1%
b11111111111111111111111111110111 &
bx ,
02
15
b10011 7
b0 :
b0 ;
bx =
b11110100001000101100 L
1M
b1000000 N
1O
b11111111111111111111111111110111 P
1X
b0 Z
0[
b11 \
b1 ]
b1000 ^
b0 _
b0 `
0a
1d
b0 e
1f
b0 g
#200000
05
0X
0d
0f
#205000
0!
0"
0#
0%
02
15
b10100 7
b0 ;
bx =
b1001 I
b11110100001000101011 L
0M
0O
1X
b0 Z
0[
b1 \
b11 ]
1d
b0 e
1f
b0 g
b1000100 h
b11111111111111111111111111110110 i
#210000
05
0X
0d
0f
#215000
1!
1"
1#
b1000100 $
1%
b11111111111111111111111111110110 &
bx ,
02
15
b10101 7
b0 :
b0 ;
bx =
b11110100001000101010 L
1M
b1000100 N
1O
b11111111111111111111111111110110 P
1X
b0 Z
0[
b11 \
b1 ]
b1001 ^
b0 _
b0 `
0a
1d
b0 e
1f
b0 g
#220000
05
0X
0d
0f
#225000
0!
0"
0#
0%
02
15
b10110 7
b0 ;
bx =
b1010 I
b11110100001000101001 L
0M
0O
1X
b0 Z
0[
b1 \
b11 ]
1d
b0 e
1f
b0 g
b1001000 h
b0 i
#230000
05
0X
0d
0f
#235000
1!
1"
1#
b1001000 $
1%
b0 &
bx ,
02
15
b10111 7
b0 :
b0 ;
bx =
b11110100001000101000 L
1M
b1001000 N
1O
b0 P
1X
b0 Z
0[
b11 \
b1 ]
b1010 ^
b0 _
b0 `
0a
1d
b0 e
1f
b0 g
#240000
05
0X
0d
0f
#245000
0!
0"
0#
0%
0'
0)
02
15
b11000 7
b0 ;
b0 =
b0 ?
b0 I
b11110100001000100111 L
0M
0O
0R
1X
b0 Z
0[
b1 \
b10 ]
1d
b0 e
1f
b0 g
b100000 j
b0 k
b11111111111111111111111111111111 l
#250000
05
0X
0d
0f
#255000
1'
1(
1)
b100000 *
1+
b0 ,
02
15
b11001 7
b1111 8
19
b0 :
b0 ;
bx <
b1111 =
b1 ?
b11110100001000100110 L
1Q
1R
b100000 S
1X
b1111 Z
0[
b10 \
b10 ]
b0 ^
b0 _
b0 `
0a
1d
b0 e
1f
b0 g
#260000
05
0X
0d
0f
#265000
0'
0)
15
b11010 7
b0 <
b0 =
b0 ?
b1 A
b1 I
b11110100001000100101 L
0R
1X
b1111 Z
0[
b10 \
b11 ]
1d
b0 e
1f
b0 g
b100100 j
b11111111111111111111111111110110 k
b11111111111111111111111111111111 l
#270000
05
0X
0d
0f
#275000
1'
1(
1)
b100100 *
b11111111111111111111111111110110 ,
02
15
b11011 7
b11111111111111111111111111110110 :
b100 ;
b1111 =
b1 ?
b100 @
b11110100001000100100 L
1R
b100100 S
1X
b1111 Z
0[
b11 \
b10 ]
1d
b0 e
1f
b0 g
#280000
05
0X
0d
0f
#285000
0'
0)
02
15
b11100 7
b0 8
b0 :
b0 ;
b11111111111111111111111111110110 <
b0 =
b0 ?
b0 @
b1 A
b10 I
b11110100001000100011 L
0R
1X
b0 Z
0[
b10 \
b11 ]
1d
b100 e
1f
b100 g
b101000 j
b11111111111111111111111111110111 k
b11111111111111111111111111111111 l
#290000
05
0X
0d
0f
#295000
1'
1(
1)
b101000 *
b11111111111111111111111111110111 ,
02
15
b11101 7
b1111 8
b11111111111111111111111111110111 :
b1000 ;
b0 <
b1111 =
b1 ?
b1000 @
b1 A
b11110100001000100010 L
1R
b101000 S
1X
b1111 Z
0[
b11 \
b10 ]
1d
b0 e
1f
b0 g
#300000
05
0X
0d
0f
#305000
0'
0)
02
15
b11110 7
b0 8
b0 :
b0 ;
b11111111111111111111111111110111 <
b0 =
b0 ?
b0 @
b1 A
b11 I
b11110100001000100001 L
0R
1X
b0 Z
0[
b10 \
b11 ]
1d
b1000 e
1f
b1000 g
b101100 j
b10111 k
b11111111111111111111111111111111 l
#310000
05
0X
0d
0f
#315000
1'
1(
1)
b101100 *
b10111 ,
02
15
b11111 7
b1111 8
b10111 :
b1100 ;
b0 <
b1111 =
b1 ?
b1100 @
b1 A
b11110100001000100000 L
1R
b101100 S
1X
b1111 Z
0[
b11 \
b10 ]
1d
b0 e
1f
b0 g
#320000
05
0X
0d
0f
#325000
0'
0)
02
15
b100000 7
b0 8
b0 :
b0 ;
b10111 <
b0 =
b0 ?
b0 @
b1 A
b100 I
b11110100001000011111 L
0R
1X
b0 Z
0[
b10 \
b11 ]
1d
b1100 e
1f
b1100 g
b110000 j
b111000 k
b11111111111111111111111111111111 l
#330000
05
0X
0d
0f
#335000
1'
1(
1)
b110000 *
b111000 ,
02
15
b100001 7
b1111 8
b111000 :
b10000 ;
b0 <
b1111 =
b1 ?
b10000 @
b1 A
b11110100001000011110 L
1R
b110000 S
1X
b1111 Z
0[
b11 \
b10 ]
1d
b0 e
1f
b0 g
#340000
05
0X
0d
0f
#345000
0'
0)
02
15
b100010 7
b0 8
b0 :
b0 ;
b111000 <
b0 =
b0 ?
b0 @
b1 A
b101 I
b11110100001000011101 L
0R
1X
b0 Z
0[
b10 \
b11 ]
1d
b10000 e
1f
b10000 g
b110100 j
b111111 k
b11111111111111111111111111111111 l
#350000
05
0X
0d
0f
#355000
1'
1(
1)
b110100 *
b111111 ,
02
15
b100011 7
b1111 8
b111111 :
b10100 ;
b0 <
b1111 =
b1 ?
b10100 @
b1 A
b11110100001000011100 L
1R
b110100 S
1X
b1111 Z
0[
b11 \
b10 ]
1d
b0 e
1f
b0 g
#360000
05
0X
0d
0f
#365000
0'
0)
02
15
b100100 7
b0 8
b0 :
b0 ;
b111111 <
b0 =
b0 ?
b0 @
b1 A
b110 I
b11110100001000011011 L
0R
1X
b0 Z
0[
b10 \
b11 ]
1d
b10100 e
1f
b10100 g
b111000 j
b111000 k
b11111111111111111111111111111111 l
#370000
05
0X
0d
0f
#375000
1'
1(
1)
b111000 *
b111000 ,
02
15
b100101 7
b1111 8
b111000 :
b11000 ;
b0 <
b1111 =
b1 ?
b11000 @
b1 A
b11110100001000011010 L
1R
b111000 S
1X
b1111 Z
0[
b11 \
b10 ]
1d
b0 e
1f
b0 g
#380000
05
0X
0d
0f
#385000
0'
0)
02
15
b100110 7
b0 8
b0 :
b0 ;
b111000 <
b0 =
b0 ?
b0 @
b1 A
b111 I
b11110100001000011001 L
0R
1X
b0 Z
0[
b10 \
b11 ]
1d
b11000 e
1f
b11000 g
b111100 j
b10111 k
b11111111111111111111111111111111 l
#390000
05
0X
0d
0f
#395000
1'
1(
1)
b111100 *
b10111 ,
02
15
b100111 7
b1111 8
b10111 :
b11100 ;
b0 <
b1111 =
b1 ?
b11100 @
b1 A
b11110100001000011000 L
1R
b111100 S
1X
b1111 Z
0[
b11 \
b10 ]
1d
b0 e
1f
b0 g
#400000
05
0X
0d
0f
#405000
0'
0)
02
15
b101000 7
b0 8
b0 :
b0 ;
b10111 <
b0 =
b0 ?
b0 @
b1 A
b1000 I
b11110100001000010111 L
0R
1X
b0 Z
0[
b10 \
b11 ]
1d
b11100 e
1f
b11100 g
b1000000 j
b11111111111111111111111111110111 k
b11111111111111111111111111111111 l
#410000
05
0X
0d
0f
#415000
1'
1(
1)
b1000000 *
b11111111111111111111111111110111 ,
02
15
b101001 7
b1111 8
b11111111111111111111111111110111 :
b100000 ;
b0 <
b1111 =
b1 ?
b100000 @
b1 A
b11110100001000010110 L
1R
b1000000 S
1X
b1111 Z
0[
b11 \
b10 ]
1d
b0 e
1f
b0 g
#420000
05
0X
0d
0f
#425000
0'
0)
02
15
b101010 7
b0 8
b0 :
b0 ;
b11111111111111111111111111110111 <
b0 =
b0 ?
b0 @
b1 A
b1001 I
b11110100001000010101 L
0R
1X
b0 Z
0[
b10 \
b11 ]
1d
b100000 e
1f
b100000 g
b1000100 j
b11111111111111111111111111110110 k
b11111111111111111111111111111111 l
#430000
05
0X
0d
0f
#435000
1'
1(
1)
b1000100 *
b11111111111111111111111111110110 ,
02
15
b101011 7
b1111 8
b11111111111111111111111111110110 :
b100100 ;
b0 <
b1111 =
b1 ?
b100100 @
b1 A
b11110100001000010100 L
1R
b1000100 S
1X
b1111 Z
0[
b11 \
b10 ]
1d
b0 e
1f
b0 g
#440000
05
0X
0d
0f
#445000
0'
0)
02
15
b101100 7
b0 8
b0 :
b0 ;
b11111111111111111111111111110110 <
b0 =
b0 ?
b0 @
b1 A
b1010 I
b11110100001000010011 L
0R
1X
b0 Z
0[
b10 \
b11 ]
1d
b100100 e
1f
b100100 g
b1001000 j
b0 k
b11111111111111111111111111111111 l
#450000
05
0X
0d
0f
#455000
1'
1(
1)
b1001000 *
b0 ,
02
15
b101101 7
b1111 8
b0 :
b101000 ;
b0 <
b1111 =
b1 ?
b101000 @
b1 A
b11110100001000010010 L
1R
b1001000 S
1X
b1111 Z
0[
b11 \
b10 ]
1d
b0 e
1f
b0 g
#460000
05
0X
0d
0f
#465000
0'
0)
02
15
b101110 7
b0 8
b0 :
b0 ;
b0 <
b0 =
b0 ?
b0 @
b1 A
b1011 I
b11110100001000010001 L
0R
1X
b0 Z
0[
b10 \
b11 ]
1d
b101000 e
1f
b101000 g
#470000
05
0X
0d
0f
#475000
0#
0%
02
15
b101111 7
b1111 8
b0 :
b101000 ;
b0 <
b0 =
b101000 @
b1 A
b11110100001000010000 L
1X
b1111 Z
0[
b11 \
b10 ]
1d
b0 e
1f
b0 g
b0 h
b1 i
#480000
05
0X
0d
0f
#485000
1!
1"
1#
b0 $
1%
b1 &
02
15
b110000 7
b0 8
b0 :
b0 ;
b0 <
b0 =
b0 @
b1 A
b11110100001000001111 L
1M
b0 N
1O
b1 P
1X
b0 Z
0[
b10 \
b1 ]
1d
b101000 e
1f
b101000 g
#490000
05
0X
0d
0f
#495000
02
15
b110001 7
b1111 8
b0 :
b101000 ;
b0 <
b0 =
b101000 @
b1 A
b11110100001000001110 L
1X
b1111 Z
0[
b1 \
b1 ]
1d
b0 e
1f
b0 g
#500000
05
0X
0d
0f
#505000
b0 ,
15
b110010 7
b0 8
b0 :
b0 ;
b0 <
b0 @
b1 A
b11110100001000001101 L
1X
b0 Z
0[
b1 \
b100 ]
b1 ^
b0 _
b0 `
0a
1d
b101000 e
1f
b101000 g
#510000
05
0X
0d
0f
#515000
02
15
b110011 7
b0 ;
b0 <
b1111 =
b1 ?
b1 A
b11110100001000001100 L
1X
b0 Z
0[
b100 \
b101 ]
b10 ^
b0 _
b0 `
0a
1d
b0 e
1f
b0 g
#520000
05
0X
0d
0f
#525000
b0 ,
02
15
b110100 7
b0 :
b0 ;
b0 =
b0 ?
b11110100001000001011 L
1X
b0 Z
0[
b101 \
b101 ]
b0 ^
b1 _
1d
b0 e
1f
b0 g
#530000
05
0X
0d
0f
#535000
15
b110101 7
b100 ;
b100 @
b11110100001000001010 L
1X
0[
b101 \
b101 ]
b1 ^
b10 _
b0 `
b0 b
1d
b0 e
1f
b0 g
#540000
05
0X
0d
0f
#545000
15
b110110 7
b1000 ;
b11111111111111111111111111110110 <
b1000 @
b1 A
b11110100001000001001 L
1X
0[
b101 \
b101 ]
b10 ^
b11 _
b1 `
b0 b
1d
b100 e
1f
b100 g
#550000
05
0X
0d
0f
#555000
15
b110111 7
b1100 ;
b11111111111111111111111111110111 <
b1100 @
b1 A
b11110100001000001000 L
1X
0[
b101 \
b101 ]
b11 ^
b100 _
b10 `
b0 b
1d
b1000 e
1f
b1000 g
#560000
05
0X
0d
0f
#565000
15
b111000 7
b10000 ;
b10111 <
b10000 @
b1 A
b11110100001000000111 L
1X
0[
b101 \
b101 ]
b100 ^
b101 _
b11 `
b0 b
1d
b1100 e
1f
b1100 g
#570000
05
0X
0d
0f
#575000
15
b111001 7
b10100 ;
b111000 <
b10100 @
b1 A
b11110100001000000110 L
1X
0[
b101 \
b101 ]
b101 ^
b110 _
b100 `
b0 b
1d
b10000 e
1f
b10000 g
#580000
05
0X
0d
0f
#585000
15
b111010 7
b11000 ;
b111111 <
b11000 @
b1 A
b11110100001000000101 L
1X
0[
b101 \
b101 ]
b110 ^
b111 _
b101 `
b0 b
1d
b10100 e
1f
b10100 g
#590000
05
0X
0d
0f
#595000
15
b111011 7
b11100 ;
b111000 <
b11100 @
b1 A
b11110100001000000100 L
1X
0[
b101 \
b101 ]
b111 ^
b1000 _
b110 `
b0 b
1d
b11000 e
1f
b11000 g
#600000
05
0X
0d
0f
#605000
15
b111100 7
b100000 ;
b10111 <
b100000 @
b1 A
b11110100001000000011 L
1X
0[
b101 \
b101 ]
b1000 ^
b1001 _
b111 `
b0 b
1d
b11100 e
1f
b11100 g
#610000
05
0X
0d
0f
#615000
10
15
b111101 7
b100100 ;
b11111111111111111111111111110111 <
b100100 @
b1 A
b11110100001000000010 L
1X
1[
b101 \
b101 ]
b1001 ^
b1010 _
b1000 `
b0 b
1d
b100000 e
1f
b100000 g
#620000
05
0X
0d
0f
#625000
1-
b10 .
00
15
b111110 7
b101000 ;
b11111111111111111111111111110110 <
b0 ?
b101000 @
b1 A
b1 H
b11110100001000000001 L
b10 U
1X
0[
b101 \
b110 ]
b1010 ^
b0 _
b1001 `
b0 b
1d
b100100 e
1f
b100100 g
b10 m
#630000
05
0X
0d
0f
#635000
02
15
b111111 7
b0 ;
b0 <
b1111 =
b10 ?
b0 @
b1 A
b11110100001000000000 L
1X
0[
b110 \
b111 ]
b0 ^
b1 _
b1010 `
b0 b
1d
b101000 e
1f
b101000 g
#640000
05
0X
0d
0f
#645000
11
12
04
15
b1000000 7
b0 ;
b0 <
b0 =
b0 ?
b10 A
b0 I
b11110100000111111111 L
1X
0[
b111 \
b101 ]
b0 b
1d
b0 e
1f
b0 g
b0 n
b0 o
#650000
05
0X
0d
0f
#655000
02
04
15
b1000001 7
b0 ;
b0 =
b11110100000111111110 L
1X
b101 \
b101 ]
0a
b0 b
1d
b0 e
1f
b0 g
#660000
05
0X
0d
0f
#665000
11
15
b1000010 7
b100 ;
b100 @
b1 I
b11110100000111111101 L
1X
0[
b101 \
b101 ]
b1 ^
b10 _
b0 `
b0 b
1d
b0 e
1f
b0 g
b11111111111111111111111111110110 n
b1 o
#670000
05
0X
0d
0f
#675000
15
b1000011 7
b1000 ;
b11111111111111111111111111110110 <
b1000 @
b1 A
b11110100000111111100 L
1X
0[
b101 \
b101 ]
b10 ^
b11 _
b1 `
b0 b
1d
b100 e
1f
b100 g
#680000
05
0X
0d
0f
#685000
b11111111111111111111111111110110 3
15
b1000100 7
b1100 ;
b11111111111111111111111111110111 <
b1100 @
b1 A
b11110100000111111011 L
1X
0[
b101 \
b101 ]
b11 ^
b100 _
b10 `
b11111111111111111111111111110110 b
1d
b1000 e
1f
b1000 g
#690000
05
0X
0d
0f
#695000
15
b1000101 7
b10000 ;
b10111 <
b10000 @
b1 A
b11110100000111111010 L
1X
0[
b101 \
b101 ]
b100 ^
b101 _
b11 `
b11111111111111111111111111110110 b
1d
b1100 e
1f
b1100 g
#700000
05
0X
0d
0f
#705000
15
b1000110 7
b10100 ;
b111000 <
b10100 @
b1 A
b11110100000111111001 L
1X
0[
b101 \
b101 ]
b101 ^
b110 _
b100 `
b11111111111111111111111111110110 b
1d
b10000 e
1f
b10000 g
#710000
05
0X
0d
0f
#715000
15
b1000111 7
b11000 ;
b111111 <
b11000 @
b1 A
b11110100000111111000 L
1X
0[
b101 \
b101 ]
b110 ^
b111 _
b101 `
b11111111111111111111111111110110 b
1d
b10100 e
1f
b10100 g
#720000
05
0X
0d
0f
#725000
15
b1001000 7
b11100 ;
b111000 <
b11100 @
b1 A
b11110100000111110111 L
1X
0[
b101 \
b101 ]
b111 ^
b1000 _
b110 `
b11111111111111111111111111110110 b
1d
b11000 e
1f
b11000 g
#730000
05
0X
0d
0f
#735000
15
b1001001 7
b100000 ;
b10111 <
b100000 @
b1 A
b11110100000111110110 L
1X
0[
b101 \
b101 ]
b1000 ^
b1001 _
b111 `
b11111111111111111111111111110110 b
1d
b11100 e
1f
b11100 g
#740000
05
0X
0d
0f
#745000
10
15
b1001010 7
b100100 ;
b11111111111111111111111111110111 <
b100100 @
b1 A
b11110100000111110101 L
1X
1[
b101 \
b101 ]
b1001 ^
b1010 _
b1000 `
b11111111111111111111111111110110 b
1d
b100000 e
1f
b100000 g
#750000
05
0X
0d
0f
#755000
1-
b11 .
00
15
b1001011 7
b101000 ;
b11111111111111111111111111110110 <
b0 ?
b101000 @
b1 A
b10 H
b11110100000111110100 L
b11 U
1X
0[
b101 \
b110 ]
b1010 ^
b0 _
b1001 `
b11111111111111111111111111110110 b
1d
b100100 e
1f
b100100 g
b11 m
#760000
05
0X
0d
0f
#765000
02
15
b1001100 7
b0 ;
b0 <
b1111 =
b11 ?
b0 @
b1 A
b11110100000111110011 L
1X
0[
b110 \
b111 ]
b0 ^
b1 _
b1010 `
b11111111111111111111111111110110 b
1d
b101000 e
1f
b101000 g
#770000
05
0X
0d
0f
#775000
12
04
15
b1001101 7
b0 ;
b0 <
b0 =
b0 ?
b11 A
b11110100000111110010 L
1X
0[
b111 \
b101 ]
b11111111111111111111111111110110 b
1d
b0 e
1f
b0 g
#780000
05
0X
0d
0f
#785000
11
02
b0 3
04
15
b1001110 7
b0 ;
b0 =
b10 I
b11110100000111110001 L
1X
b101 \
b101 ]
0a
b0 b
1d
b0 e
1f
b0 g
b11111111111111111111111111100011 n
b10 o
#790000
05
0X
0d
0f
#795000
15
b1001111 7
b100 ;
b100 @
b11110100000111110000 L
1X
0[
b101 \
b101 ]
b1 ^
b10 _
b0 `
b0 b
1d
b0 e
1f
b0 g
#800000
05
0X
0d
0f
#805000
15
b1010000 7
b1000 ;
b11111111111111111111111111110110 <
b1000 @
b1 A
b11110100000111101111 L
1X
0[
b101 \
b101 ]
b10 ^
b11 _
b1 `
b0 b
1d
b100 e
1f
b100 g
#810000
05
0X
0d
0f
#815000
b11111111111111111111111111101100 3
15
b1010001 7
b1100 ;
b11111111111111111111111111110111 <
b1100 @
b1 A
b11110100000111101110 L
1X
0[
b101 \
b101 ]
b11 ^
b100 _
b10 `
b11111111111111111111111111101100 b
1d
b1000 e
1f
b1000 g
#820000
05
0X
0d
0f
#825000
b11111111111111111111111111100011 3
15
b1010010 7
b10000 ;
b10111 <
b10000 @
b1 A
b11110100000111101101 L
1X
0[
b101 \
b101 ]
b100 ^
b101 _
b11 `
b11111111111111111111111111100011 b
1d
b1100 e
1f
b1100 g
#830000
05
0X
0d
0f
#835000
15
b1010011 7
b10100 ;
b111000 <
b10100 @
b1 A
b11110100000111101100 L
1X
0[
b101 \
b101 ]
b101 ^
b110 _
b100 `
b11111111111111111111111111100011 b
1d
b10000 e
1f
b10000 g
#840000
05
0X
0d
0f
#845000
15
b1010100 7
b11000 ;
b111111 <
b11000 @
b1 A
b11110100000111101011 L
1X
0[
b101 \
b101 ]
b110 ^
b111 _
b101 `
b11111111111111111111111111100011 b
1d
b10100 e
1f
b10100 g
#850000
05
0X
0d
0f
#855000
15
b1010101 7
b11100 ;
b111000 <
b11100 @
b1 A
b11110100000111101010 L
1X
0[
b101 \
b101 ]
b111 ^
b1000 _
b110 `
b11111111111111111111111111100011 b
1d
b11000 e
1f
b11000 g
#860000
05
0X
0d
0f
#865000
15
b1010110 7
b100000 ;
b10111 <
b100000 @
b1 A
b11110100000111101001 L
1X
0[
b101 \
b101 ]
b1000 ^
b1001 _
b111 `
b11111111111111111111111111100011 b
1d
b11100 e
1f
b11100 g
